<?xml version="1.0" encoding="utf-8"?>
<!DOCTYPE svg PUBLIC "-//W3C//DTD SVG 1.1//EN" "http://www.w3.org/Graphics/SVG/1.1/DTD/svg11.dtd">

<svg version="1.1" id="ebene1" xmlns="http://www.w3.org/2000/svg" xmlns:xlink="http://www.w3.org/1999/xlink" x="0px" y="0px"
	 viewBox="0 0 100 70" enable-background="new 0 0 100 70" xml:space="preserve">
  <style>
    .bg_box {
      fill: none;
    }
    
    path {
      stroke: #333333;
      stroke-width: 1;
      fill: none;
    }
    text {
      font-size: 10px;
      font-weight: bold;
      text-anchor: middle;
    }
    .small {
      font-size: 8px;
    }
    .tiny {
      font-family: sans-serif;
      font-size: 5px;
    }
    .start {
      text-anchor: start;
    }
    #card path {
      stroke: none;
      stroke-width: 0.5;
      fill: white;
    }
    #card path.section {
      stroke: none;
      fill: #dddddd;
    }
    #card path.border {
      stroke: black;
      stroke-width: 0.5;
      fill: none;
    }
    #bars rect {
      fill: #333333;
    }
    #logo path {
      fill: #333333;
      stroke: none;
    }
    #logo text {
      fill: white;
      font-size: 100px;
      font-weight: normal;
      text-anchor: start;
    }
    #logo text.secondary {
      fill: #bbbbbb;
      font-size: 60px;
      text-anchor: end;
    }
  </style>
  
  <defs>
    <clipPath id="logo_border">
      <path d="M1,1 l99,0 a49 86 0 0 1 -99,0 z" />
    </clipPath>
  </defs>
  
  <rect class="bg_box" x="0" y="0" width="100" height="70" />
  
  <g id="card">
    <path d="M1,6 a5 5 0 0 1 5,-5 l88,0 a5 5 0 0 1 5,5 l0,58 a5 5 0 0 1 -5,5 l-88,0 a5 5 0 0 1 -5,-5 l0,-58z" />
    <path class="section" d="M1,6 a5 5 0 0 1 5,-5 l24,0 l0,68 l-24,0 a5 5 0 0 1 -5,-5 l0,-58z" />
    <path class="border" d="M1,6 a5 5 0 0 1 5,-5 l88,0 a5 5 0 0 1 5,5 l0,58 a5 5 0 0 1 -5,5 l-88,0 a5 5 0 0 1 -5,-5 l0,-58z" />
  </g>
  
  <g id="logo" transform="translate(9 9) scale(0.125 0.125)">
    <g id="logo" clip-path="url(#logo_border)">
      <path d="M1,1 l99,0 a49 86 0 0 1 -99,0 z" />
      <text x="8" y="74">P</text>
      <text x="92" y="48" class="secondary">R</text>
    </g>
  </g>
  
  <g id="bars">
    <rect x="10" y="33" width="6" height="10" />
    <rect x="18" y="33" width="2" height="10" />
  </g>
  
  <g id="labels">
    <text class="small" x="15" y="27" dx="1">10%</text>
    
    <text class="tiny" x="15" y="54" dx="1">PRIVAT</text>
    <text class="tiny" x="15" y="60">BAHN</text>
    
    <text x="63" y="17">Hannoversche</text>
    <text x="63" y="26">Bahn</text>
    
    <text x="80" y="60" text-anchor="end">160M</text>
    
    <text x="36" y="50" class="small start">Ertrag</text>
    <text x="36" y="60" class="start">30M</text>
  </g>
</svg>
