<?xml version="1.0" encoding="utf-8"?>
<!DOCTYPE svg PUBLIC "-//W3C//DTD SVG 1.1//EN" "http://www.w3.org/Graphics/SVG/1.1/DTD/svg11.dtd">

<svg version="1.1" id="ebene1" xmlns="http://www.w3.org/2000/svg" xmlns:xlink="http://www.w3.org/1999/xlink" x="0px" y="0px"
	 viewBox="0 0 10 10" enable-background="new 0 0 10 10" xml:space="preserve">
<style>
  text {
    font-family: HelveticaNeue, Arial, sans-serif;
    font-size: 7.2px;
  }
</style>
<rect x="0" y="0" width="10" height="10" fill="none" />
<path fill="none" stroke="#FFFFFF" stroke-width="0.75" stroke-linecap="square" d="M1,1 L7,1 L9,3 L9,9 L1,9 z" />
<path fill="none" stroke="#FFFFFF" stroke-width="0.75" stroke-linecap="butt" d="M7,1 L7,3 L9,3" />
<text x="4.25" y="7.5" fill="white" text-anchor="middle">?</text>
</svg>
